<svg width="40" height="40" viewBox="0 0 40 40" fill="none" xmlns="http://www.w3.org/2000/svg">
<path d="M31.25 5.625V35.625H13.125V30.625H8.75V5.625H31.25Z" fill="#EFEADD"/>
<path d="M8.75 20V30.625H13.125V35.625H25.625C16.2975 35.625 8.75 27.9456 8.75 20Z" fill="#D1CDC1"/>
<path d="M8.75 30.625L13.125 35.625V30.625H8.75Z" fill="#202561"/>
<path d="M33.75 35.625V8.125C33.75 7.46196 33.4866 6.82607 33.0178 6.35723C32.5489 5.88839 31.913 5.625 31.25 5.625V35.625H13.125L8.75 30.625V5.625C8.08696 5.625 7.45107 5.88839 6.98223 6.35723C6.51339 6.82607 6.25 7.46196 6.25 8.125V35.625C6.25 36.288 6.51339 36.9239 6.98223 37.3928C7.45107 37.8616 8.08696 38.125 8.75 38.125H31.25C31.913 38.125 32.5489 37.8616 33.0178 37.3928C33.4866 36.9239 33.75 36.288 33.75 35.625Z" fill="#808285"/>
<path d="M32.95 37.4563C32.4876 37.8851 31.8806 38.1239 31.25 38.125H8.75C8.08696 38.125 7.45107 37.8616 6.98223 37.3928C6.51339 36.9239 6.25 36.2881 6.25 35.625V8.12501C6.25068 7.54053 6.45613 6.97476 6.83065 6.52603C7.20516 6.0773 7.72506 5.77397 8.3 5.66876C8.04699 5.90187 7.84521 6.18504 7.70749 6.50029C7.56977 6.81554 7.49911 7.15599 7.5 7.50001V35C7.5 35.6631 7.76339 36.2989 8.23223 36.7678C8.70107 37.2366 9.33696 37.5 10 37.5H32.5C32.6511 37.5016 32.802 37.4869 32.95 37.4563Z" fill="#6D6E71"/>
<path d="M25.625 8.12501V5.62501C25.625 5.29349 25.4933 4.97554 25.2589 4.74112C25.0245 4.5067 24.7065 4.37501 24.375 4.37501H23.4812C23.2295 4.36873 22.9859 4.28424 22.7843 4.13328C22.5827 3.98231 22.4331 3.77234 22.3563 3.53251C22.1828 3.04691 21.8635 2.62681 21.442 2.32977C21.0205 2.03273 20.5175 1.87329 20.0019 1.87329C19.4862 1.87329 18.9832 2.03273 18.5617 2.32977C18.1402 2.62681 17.8209 3.04691 17.6475 3.53251C17.5704 3.77294 17.4203 3.98332 17.2179 4.13435C17.0156 4.28537 16.7712 4.3695 16.5188 4.37501H15.625C15.2935 4.37501 14.9755 4.5067 14.7411 4.74112C14.5067 4.97554 14.375 5.29349 14.375 5.62501V8.12501H25.625Z" fill="#202561"/>
<path d="M12.5 15.625H27.5V18.125H12.5V15.625Z" fill="#91C440"/>
<path d="M19.375 13.75H20.625V12.5H21.875V11.25H20.625V10H19.375V11.25H18.125V12.5H19.375V13.75Z" fill="#ED1C24"/>
<path d="M13.125 20H14.375V21.25H13.125V20Z" fill="#2488FF"/>
<path d="M13.125 22.5H14.375V23.75H13.125V22.5Z" fill="#2488FF"/>
<path d="M15.625 20H26.875V21.25H15.625V20Z" fill="#202561"/>
<path d="M15.625 22.5H26.875V23.75H15.625V22.5Z" fill="#202561"/>
<path d="M13.125 25H14.375V26.25H13.125V25Z" fill="#2488FF"/>
<path d="M15.625 25H26.875V26.25H15.625V25Z" fill="#202561"/>
<path d="M16.25 29.375H26.25V33.125H16.25V29.375Z" fill="#FFA028"/>
</svg>
